Analysis of High Dimensional Data - Lab 1
…
Which gives us the same result as before (which is a good check that we didnt make mistakes!).

3 Exercises

3.1 Cheese data

Data prep

Read in the cheese data, which characterizes 30 cheeses on various metrics.

cheese <- read_csv("https://github.com/statOmics/HDA2020/raw/data/cheese.csv",
                   col_types = "idddd")
head(cheese)
#> # A tibble: 6 x 5
#>    Case taste Acetic   H2S Lactic
#>   <int> <dbl>  <dbl> <dbl>  <dbl>
#> 1     1  12.3   4.54  3.14   0.86
#> 2     2  20.9   5.16  5.04   1.53
#> 3     3  39     5.37  5.44   1.57
#> 4     4  47.9   5.76  7.50   1.81
#> 5     5   5.6   4.66  3.81   0.99
#> 6     6  25.9   5.70  7.60   1.09

Q: what is the dimensionality of this data?

Answer

A: 4, since we have 4 features (the first column is just an identifier for the observation, so we dont regard this as a feature).

ncol(cheese) - 1
#> [1] 4

Convert the cheese table to a matrix for easier calculations. We will drop the first column (as its not a feature) and instead use it to create rownames.

cheese_mx <- as.matrix(cheese[, -1])
rownames(cheese_mx) <- paste("case", cheese$Case, sep = "_")
cheese_mx
#>         taste Acetic    H2S Lactic
#> case_1   12.3  4.543  3.135   0.86
#> case_2   20.9  5.159  5.043   1.53
#> case_3   39.0  5.366  5.438   1.57
#> case_4   47.9  5.759  7.496   1.81
#> case_5    5.6  4.663  3.807   0.99
#> case_6   25.9  5.697  7.601   1.09
#> case_7   37.3  5.892  8.726   1.29
#> case_8   21.9  6.078  7.966   1.78
#> case_9   18.1  4.898  3.850   1.29
#> case_10  21.0  5.242  4.174   1.58
#> case_11  34.9  5.740  6.142   1.68
#> case_12  57.2  6.446  7.908   1.90
#> case_13   0.7  4.477  2.996   1.06
#> case_14  25.9  5.236  4.942   1.30
#> case_15  54.9  6.151  6.752   1.52
#> case_16  40.9  6.365  9.588   1.74
#> case_17  15.9  4.787  3.912   1.16
#> case_18   6.4  5.412  4.700   1.49
#> case_19  18.0  5.247  6.174   1.63
#> case_20  38.9  5.438  9.064   1.99
#> case_21  14.0  4.564  4.949   1.15
#> case_22  15.2  5.298  5.220   1.33
#> case_23  32.0  5.455  9.242   1.44
#> case_24  56.7  5.855 10.199   2.01
#> case_25  16.8  5.366  3.664   1.31
#>  [ reached getOption("max.print") -- omitted 5 rows ]
…
